id,title,description,availability,condition,price,link,image_link,brand,item_group_id,fb_product_category,google_product_category
5,"Signe Strickland",adsawdawd,"in stock",new,"144 USD",https://damastore.net/productDetails/5,https://damastore.net/images/1611653695.png,DamaStore,2,"Keaton Collier > Bag","Keaton Collier > Bag"
6,"Signe Strickland",adsawdawd,"in stock",new,"144 USD",https://damastore.net/productDetails/6,https://damastore.net/images/1611653706.png,DamaStore,2,"Keaton Collier > Bag","Keaton Collier > Bag"
7,"Signe Strickland",adsawdawd,"in stock",new,"144 USD",https://damastore.net/productDetails/7,https://damastore.net/images/1611653721.png,DamaStore,2,"Keaton Collier > Bag","Keaton Collier > Bag"
8,"Genevieve Bentley","sd faf asd fasd ","in stock",new,"306 USD",https://damastore.net/productDetails/8,https://damastore.net/images/1612307723.png,DamaStore,2,"Keaton Collier > Bag","Keaton Collier > Bag"
9,"Wallace Osborne","ea faw aw ew ","in stock",new,"1404 USD",https://damastore.net/productDetails/9,https://damastore.net/images/1612473457.png,DamaStore,2,"Keaton Collier > Bag","Keaton Collier > Bag"
10,"Doris Gaines",awdawdawd,"in stock",new,"218 USD",https://damastore.net/productDetails/10,https://damastore.net/images/1612473556.png,DamaStore,1,"Roth Sharpedaw aw aw > dish","Roth Sharpedaw aw aw > dish"
11,"Arden Weber","dfsfse e es ","in stock",new,"1514 USD",https://damastore.net/productDetails/11,https://damastore.net/images/1617129209.png,DamaStore,2,"Keaton Collier > Bag","Keaton Collier > Bag"
12,"Arden Weber","dfsfse e es 

gfgdfss f awf","in stock",new,"1514 USD",https://damastore.net/productDetails/12,https://damastore.net/images/1617129244.png,DamaStore,1,"Roth Sharpedaw aw aw > dish","Roth Sharpedaw aw aw > dish"
13,"Arden Weber","dfsfse e es 

gfgdfss f awf","in stock",new,"1514 USD",https://damastore.net/productDetails/13,https://damastore.net/images/1617129262.png,DamaStore,1,"Roth Sharpedaw aw aw > dish","Roth Sharpedaw aw aw > dish"
14,"Arden Weber","dfsfse e es 

gfgdfss f awf","in stock",new,"1514 USD",https://damastore.net/productDetails/14,https://damastore.net/images/1617129335.png,DamaStore,1,"Roth Sharpedaw aw aw > dish","Roth Sharpedaw aw aw > dish"
15,"Arden Weber","dfsfse e es 

gfgdfss f awf","in stock",new,"1514 USD",https://damastore.net/productDetails/15,https://damastore.net/images/1617129355.png,DamaStore,1,"Roth Sharpedaw aw aw > dish","Roth Sharpedaw aw aw > dish"
16,"Arden Weber","dfsfse e es 

gfgdfss f awf","in stock",new,"1514 USD",https://damastore.net/productDetails/16,https://damastore.net/images/1617129370.png,DamaStore,1,"Roth Sharpedaw aw aw > dish","Roth Sharpedaw aw aw > dish"
17,"Arden Weber","dfsfse e es 

gfgdfss f awf","in stock",new,"1514 USD",https://damastore.net/productDetails/17,https://damastore.net/images/1617129403.png,DamaStore,1,"Roth Sharpedaw aw aw > dish","Roth Sharpedaw aw aw > dish"
18,"Arden Weber","dfsfse e es 

gfgdfss f awf","in stock",new,"1514 USD",https://damastore.net/productDetails/18,https://damastore.net/images/1617129417.png,DamaStore,1,"Roth Sharpedaw aw aw > dish","Roth Sharpedaw aw aw > dish"
19,"Arden Weber","dfsfse e es 

gfgdfss f awf","in stock",new,"1514 USD",https://damastore.net/productDetails/19,https://damastore.net/images/1617129431.png,DamaStore,1,"Roth Sharpedaw aw aw > dish","Roth Sharpedaw aw aw > dish"
20,"Arden Weber","dfsfse e es 

gfgdfss f awf","in stock",new,"1514 USD",https://damastore.net/productDetails/20,https://damastore.net/images/1617129462.png,DamaStore,1,"Roth Sharpedaw aw aw > dish","Roth Sharpedaw aw aw > dish"
21,"Arden Weber","dfsfse e es 

gfgdfss f awf","in stock",new,"1514 USD",https://damastore.net/productDetails/21,https://damastore.net/images/1617129477.png,DamaStore,1,"Roth Sharpedaw aw aw > dish","Roth Sharpedaw aw aw > dish"
