<?xml version="1.0"?>
<svg
    xmlns:rdf="http://www.w3.org/1999/02/22-rdf-syntax-ns#"
    xmlns="http://www.w3.org/2000/svg"
    xmlns:cc="http://creativecommons.org/ns#"
    xmlns:xlink="http://www.w3.org/1999/xlink"
    xmlns:dc="http://purl.org/dc/elements/1.1/"
    xmlns:svg="http://www.w3.org/2000/svg"
    xmlns:inkscape="http://www.inkscape.org/namespaces/inkscape"
    xmlns:sodipodi="http://sodipodi.sourceforge.net/DTD/sodipodi-0.dtd"
    xmlns:ns1="http://sozi.baierouge.fr"
    id="svg11980"
    viewBox="0 0 1018.2 1017.6"
    version="1.1"
  >
  <defs
      id="defs11982"
    >
    <linearGradient
        id="linearGradient14023"
      >
      <stop
          id="stop14025"
          stop-color="#000734"
          offset="0"
      />
      <stop
          id="stop14027"
          stop-color="#0020ff"
          offset="1"
      />
    </linearGradient
    >
    <linearGradient
        id="linearGradient13429"
      >
      <stop
          id="stop13431"
          stop-color="#cbaf00"
          offset="0"
      />
      <stop
          id="stop13437"
          stop-color="#faff00"
          offset=".5"
      />
      <stop
          id="stop13433"
          stop-color="#cea939"
          offset="1"
      />
    </linearGradient
    >
    <linearGradient
        id="linearGradient13005"
      >
      <stop
          id="stop13007"
          stop-color="#120034"
          offset="0"
      />
      <stop
          id="stop13009"
          stop-color="#f600ff"
          offset="1"
      />
    </linearGradient
    >
    <radialGradient
        id="radialGradient13227"
        xlink:href="#linearGradient13005"
        gradientUnits="userSpaceOnUse"
        cy="567.07"
        cx="1260.5"
        gradientTransform="matrix(-.24750 .98870 .093034 .023289 480.56 -629.67)"
        r="253.57"
    />
    <radialGradient
        id="radialGradient13248"
        xlink:href="#linearGradient13005"
        gradientUnits="userSpaceOnUse"
        cy="567.07"
        cx="1260.5"
        gradientTransform="matrix(-.77178 -.66569 .062639 -.072622 972.2 918.69)"
        r="253.57"
    />
    <radialGradient
        id="radialGradient13254"
        xlink:href="#linearGradient13005"
        gradientUnits="userSpaceOnUse"
        cy="567.07"
        cx="1260.5"
        gradientTransform="matrix(-.97160 -.30786 .028969 -.091425 1170.2 601.76)"
        r="253.57"
    />
    <radialGradient
        id="radialGradient13260"
        xlink:href="#linearGradient13005"
        gradientUnits="userSpaceOnUse"
        cy="567.07"
        cx="1260.5"
        gradientTransform="matrix(-1.0143 .10004 -.0094132 -.095441 1227.3 232.21)"
        r="253.57"
    />
    <radialGradient
        id="radialGradient13266"
        xlink:href="#linearGradient13005"
        gradientUnits="userSpaceOnUse"
        cy="567.07"
        cx="1260.5"
        gradientTransform="matrix(-.91271 .45360 -.042682 -.085883 1150.6 -94.303)"
        r="253.57"
    />
    <radialGradient
        id="radialGradient13272"
        xlink:href="#linearGradient13005"
        gradientUnits="userSpaceOnUse"
        cy="567.07"
        cx="1260.5"
        gradientTransform="matrix(-.81124 .61699 -.058057 -.076335 1067.2 -247.84)"
        r="253.57"
    />
    <radialGradient
        id="radialGradient13275"
        xlink:href="#linearGradient13005"
        gradientUnits="userSpaceOnUse"
        cy="567.07"
        cx="1260.5"
        gradientTransform="matrix(-.52202 -.87537 -.082370 .049121 812.17 1054.5)"
        r="253.57"
    />
    <radialGradient
        id="radialGradient13281"
        xlink:href="#linearGradient13005"
        gradientUnits="userSpaceOnUse"
        cy="567.07"
        cx="1260.5"
        gradientTransform="matrix(-.047377 -1.0181 -.095801 .0044581 386.31 1205.7)"
        r="253.57"
    />
    <radialGradient
        id="radialGradient13290"
        xlink:href="#linearGradient13005"
        gradientUnits="userSpaceOnUse"
        cy="567.07"
        cx="1260.5"
        gradientTransform="matrix(.89876 -.48064 .045227 .084571 -539.11 678.93)"
        r="253.57"
    />
    <radialGradient
        id="radialGradient13296"
        xlink:href="#linearGradient13005"
        gradientUnits="userSpaceOnUse"
        cy="567.07"
        cx="1260.5"
        gradientTransform="matrix(.63677 -.79581 .074883 .059918 -314.61 977.65)"
        r="253.57"
    />
    <radialGradient
        id="radialGradient13299"
        xlink:href="#linearGradient13005"
        gradientUnits="userSpaceOnUse"
        cy="567.07"
        cx="1260.5"
        gradientTransform="matrix(.45437 -.91232 .085847 .042755 -153.72 1091.9)"
        r="253.57"
    />
    <radialGradient
        id="radialGradient13305"
        xlink:href="#linearGradient13005"
        gradientUnits="userSpaceOnUse"
        cy="567.07"
        cx="1260.5"
        gradientTransform="matrix(.063848 -1.0172 .095716 .0060079 197.23 1204.9)"
        r="253.57"
    />
    <radialGradient
        id="radialGradient13308"
        xlink:href="#linearGradient13005"
        gradientUnits="userSpaceOnUse"
        cy="567.07"
        cx="1260.5"
        gradientTransform="matrix(-.094897 -1.0148 .095488 -.0089296 341.9 1209.8)"
        r="253.57"
    />
    <radialGradient
        id="radialGradient13314"
        xlink:href="#linearGradient13005"
        gradientUnits="userSpaceOnUse"
        cy="567.07"
        cx="1260.5"
        gradientTransform="matrix(-.28385 -.97888 .092110 -.026710 515.15 1187.2)"
        r="253.57"
    />
    <radialGradient
        id="radialGradient13322"
        xlink:href="#linearGradient13005"
        gradientUnits="userSpaceOnUse"
        cy="567.07"
        cx="1260.5"
        gradientTransform="matrix(-.54774 .85952 -.080878 -.051541 834.4 -476.3)"
        r="253.57"
    />
    <radialGradient
        id="radialGradient13325"
        xlink:href="#linearGradient13005"
        gradientUnits="userSpaceOnUse"
        cy="567.07"
        cx="1260.5"
        gradientTransform="matrix(.10062 1.0142 -.095436 .0094685 250.88 -646.17)"
        r="253.57"
    />
    <radialGradient
        id="radialGradient13328"
        xlink:href="#linearGradient13005"
        gradientUnits="userSpaceOnUse"
        cy="567.07"
        cx="1260.5"
        gradientTransform="matrix(.98152 -.27460 -.025839 -.092358 -582.79 573.02)"
        r="253.57"
    />
    <radialGradient
        id="radialGradient13337"
        xlink:href="#linearGradient13005"
        gradientUnits="userSpaceOnUse"
        cy="567.07"
        cx="1260.5"
        gradientTransform="matrix(.74718 .69319 .065227 -.070307 -412.64 -318.78)"
        r="253.57"
    />
    <radialGradient
        id="radialGradient13349"
        xlink:href="#linearGradient13005"
        gradientUnits="userSpaceOnUse"
        cy="567.07"
        cx="1260.5"
        gradientTransform="matrix(.60131 .82293 -.077435 .056581 -213.62 -494.34)"
        r="253.57"
    />
    <radialGradient
        id="radialGradient13352"
        xlink:href="#linearGradient13005"
        gradientUnits="userSpaceOnUse"
        cy="567.07"
        cx="1260.5"
        gradientTransform="matrix(.76152 .67740 -.063741 .071657 -366.02 -368.97)"
        r="253.57"
    />
    <radialGradient
        id="radialGradient13358"
        xlink:href="#linearGradient13005"
        gradientUnits="userSpaceOnUse"
        cy="567.07"
        cx="1260.5"
        gradientTransform="matrix(.965 .32797 -.030861 .090803 -566.94 -59.85)"
        r="253.57"
    />
    <radialGradient
        id="radialGradient13361"
        xlink:href="#linearGradient13005"
        gradientUnits="userSpaceOnUse"
        cy="567.07"
        cx="1260.5"
        gradientTransform="matrix(1.0042 .17413 -.016385 .094494 -609.54 78.495)"
        r="253.57"
    />
    <radialGradient
        id="radialGradient13367"
        xlink:href="#linearGradient13005"
        gradientUnits="userSpaceOnUse"
        cy="567.07"
        cx="1260.5"
        gradientTransform="matrix(1.0191 -.017636 .0016595 .095890 -633.13 251.61)"
        r="253.57"
    />
    <radialGradient
        id="radialGradient13477"
        xlink:href="#linearGradient13429"
        gradientUnits="userSpaceOnUse"
        cy="206.73"
        cx="-333.56"
        gradientTransform="matrix(1 .0019695 -.015070 7.6519 3.1148 -1374.5)"
        r="16.757"
    />
    <radialGradient
        id="radialGradient13479"
        xlink:href="#linearGradient13429"
        gradientUnits="userSpaceOnUse"
        cy="206.73"
        cx="-333.56"
        gradientTransform="matrix(.74002 .67259 -5.1465 5.6625 1011.9 -726.06)"
        r="16.757"
    />
    <radialGradient
        id="radialGradient13481"
        xlink:href="#linearGradient13429"
        gradientUnits="userSpaceOnUse"
        cy="206.73"
        cx="-333.56"
        gradientTransform="matrix(.048420 .99883 -7.6429 .37051 1314.1 512.54)"
        r="16.757"
    />
    <radialGradient
        id="radialGradient13483"
        xlink:href="#linearGradient13429"
        gradientUnits="userSpaceOnUse"
        cy="206.73"
        cx="-333.56"
        gradientTransform="matrix(-.65937 .75182 -5.7528 -5.0454 674.48 1586.4)"
        r="16.757"
    />
    <radialGradient
        id="radialGradient13485"
        xlink:href="#linearGradient13429"
        gradientUnits="userSpaceOnUse"
        cy="206.73"
        cx="-333.56"
        gradientTransform="matrix(-.99467 .10315 -.78931 -7.6111 -497.01 1917.7)"
        r="16.757"
    />
    <radialGradient
        id="radialGradient13487"
        xlink:href="#linearGradient13429"
        gradientUnits="userSpaceOnUse"
        cy="206.73"
        cx="-333.56"
        gradientTransform="matrix(-.83297 -.55332 4.2339 -6.3738 -1515.5 1434.6)"
        r="16.757"
    />
    <radialGradient
        id="radialGradient13489"
        xlink:href="#linearGradient13429"
        gradientUnits="userSpaceOnUse"
        cy="206.73"
        cx="-333.56"
        gradientTransform="matrix(-.19651 -.98050 7.5027 -1.5037 -2001 252.35)"
        r="16.757"
    />
    <radialGradient
        id="radialGradient13491"
        xlink:href="#linearGradient13429"
        gradientUnits="userSpaceOnUse"
        cy="206.73"
        cx="-333.56"
        gradientTransform="matrix(.65423 -.75629 5.7871 5.0061 -1350.9 -1062.6)"
        r="16.757"
    />
    <radialGradient
        id="radialGradient14147"
        xlink:href="#linearGradient14023"
        gradientUnits="userSpaceOnUse"
        cy="567.07"
        cx="1260.5"
        gradientTransform="matrix(-.25195 -.98758 .092928 -.023708 -619.76 1360.9)"
        r="253.57"
    />
    <radialGradient
        id="radialGradient14149"
        xlink:href="#linearGradient14023"
        gradientUnits="userSpaceOnUse"
        cy="567.07"
        cx="1260.5"
        gradientTransform="matrix(.012239 -1.0191 .095897 .0011516 -861.78 1377.4)"
        r="253.57"
    />
    <radialGradient
        id="radialGradient14151"
        xlink:href="#linearGradient14023"
        gradientUnits="userSpaceOnUse"
        cy="567.07"
        cx="1260.5"
        gradientTransform="matrix(.27559 -.98124 .092332 .025932 -1099.8 1330.7)"
        r="253.57"
    />
    <radialGradient
        id="radialGradient14153"
        xlink:href="#linearGradient14023"
        gradientUnits="userSpaceOnUse"
        cy="567.07"
        cx="1260.5"
        gradientTransform="matrix(.52017 -.87648 .082474 .048946 -1317.7 1224)"
        r="253.57"
    />
    <radialGradient
        id="radialGradient14155"
        xlink:href="#linearGradient14023"
        gradientUnits="userSpaceOnUse"
        cy="567.07"
        cx="1260.5"
        gradientTransform="matrix(.72929 -.71198 .066995 .068624 -1500.5 1064.5)"
        r="253.57"
    />
    <radialGradient
        id="radialGradient14157"
        xlink:href="#linearGradient14023"
        gradientUnits="userSpaceOnUse"
        cy="567.07"
        cx="1260.5"
        gradientTransform="matrix(.88872 -.49897 .046951 .083625 -1635.8 863.19)"
        r="253.57"
    />
    <radialGradient
        id="radialGradient14159"
        xlink:href="#linearGradient14023"
        gradientUnits="userSpaceOnUse"
        cy="567.07"
        cx="1260.5"
        gradientTransform="matrix(.98758 -.25195 .023708 .092928 -1714.4 633.68)"
        r="253.57"
    />
    <radialGradient
        id="radialGradient14161"
        xlink:href="#linearGradient14023"
        gradientUnits="userSpaceOnUse"
        cy="567.07"
        cx="1260.5"
        gradientTransform="matrix(1.0191 .012239 -.0011516 .095897 -1730.9 391.66)"
        r="253.57"
    />
    <radialGradient
        id="radialGradient14163"
        xlink:href="#linearGradient14023"
        gradientUnits="userSpaceOnUse"
        cy="567.07"
        cx="1260.5"
        gradientTransform="matrix(.98124 .27559 -.025932 .092332 -1684.2 153.61)"
        r="253.57"
    />
    <radialGradient
        id="radialGradient14165"
        xlink:href="#linearGradient14023"
        gradientUnits="userSpaceOnUse"
        cy="567.07"
        cx="1260.5"
        gradientTransform="matrix(.87648 .52017 -.048946 .082474 -1577.5 -64.242)"
        r="253.57"
    />
    <radialGradient
        id="radialGradient14167"
        xlink:href="#linearGradient14023"
        gradientUnits="userSpaceOnUse"
        cy="567.07"
        cx="1260.5"
        gradientTransform="matrix(.71198 .72929 -.068624 .066995 -1418 -247.05)"
        r="253.57"
    />
    <radialGradient
        id="radialGradient14169"
        xlink:href="#linearGradient14023"
        gradientUnits="userSpaceOnUse"
        cy="567.07"
        cx="1260.5"
        gradientTransform="matrix(.25195 .98758 -.092928 .023708 -987.15 -460.94)"
        r="253.57"
    />
    <radialGradient
        id="radialGradient14171"
        xlink:href="#linearGradient14023"
        gradientUnits="userSpaceOnUse"
        cy="567.07"
        cx="1260.5"
        gradientTransform="matrix(-.012239 1.0191 -.095897 -.0011517 -745.12 -477.44)"
        r="253.57"
    />
    <radialGradient
        id="radialGradient14173"
        xlink:href="#linearGradient14023"
        gradientUnits="userSpaceOnUse"
        cy="567.07"
        cx="1260.5"
        gradientTransform="matrix(.49897 .88872 -.083625 .046951 -1216.7 -382.35)"
        r="253.57"
    />
    <radialGradient
        id="radialGradient14175"
        xlink:href="#linearGradient14023"
        gradientUnits="userSpaceOnUse"
        cy="567.07"
        cx="1260.5"
        gradientTransform="matrix(-.27559 .98124 -.092332 -.025933 -507.07 -430.74)"
        r="253.57"
    />
    <radialGradient
        id="radialGradient14177"
        xlink:href="#linearGradient14023"
        gradientUnits="userSpaceOnUse"
        cy="567.07"
        cx="1260.5"
        gradientTransform="matrix(-.52017 .87648 -.082474 -.048946 -289.22 -324.02)"
        r="253.57"
    />
    <radialGradient
        id="radialGradient14179"
        xlink:href="#linearGradient14023"
        gradientUnits="userSpaceOnUse"
        cy="567.07"
        cx="1260.5"
        gradientTransform="matrix(-.72929 .71198 -.066995 -.068624 -106.42 -164.56)"
        r="253.57"
    />
    <radialGradient
        id="radialGradient14181"
        xlink:href="#linearGradient14023"
        gradientUnits="userSpaceOnUse"
        cy="567.07"
        cx="1260.5"
        gradientTransform="matrix(-.88872 .49897 -.046951 -.083625 28.889 36.789)"
        r="253.57"
    />
    <radialGradient
        id="radialGradient14183"
        xlink:href="#linearGradient14023"
        gradientUnits="userSpaceOnUse"
        cy="567.07"
        cx="1260.5"
        gradientTransform="matrix(-.98758 .25195 -.023708 -.092928 107.47 266.29)"
        r="253.57"
    />
    <radialGradient
        id="radialGradient14185"
        xlink:href="#linearGradient14023"
        gradientUnits="userSpaceOnUse"
        cy="567.07"
        cx="1260.5"
        gradientTransform="matrix(-1.0191 -.012239 .0011517 -.095897 123.98 508.32)"
        r="253.57"
    />
    <radialGradient
        id="radialGradient14187"
        xlink:href="#linearGradient14023"
        gradientUnits="userSpaceOnUse"
        cy="567.07"
        cx="1260.5"
        gradientTransform="matrix(-.98124 -.27559 .025933 -.092332 77.277 746.37)"
        r="253.57"
    />
    <radialGradient
        id="radialGradient14189"
        xlink:href="#linearGradient14023"
        gradientUnits="userSpaceOnUse"
        cy="567.07"
        cx="1260.5"
        gradientTransform="matrix(-.87648 -.52017 .048946 -.082474 -29.441 964.22)"
        r="253.57"
    />
    <radialGradient
        id="radialGradient14191"
        xlink:href="#linearGradient14023"
        gradientUnits="userSpaceOnUse"
        cy="567.07"
        cx="1260.5"
        gradientTransform="matrix(-.71198 -.72929 .068624 -.066995 -188.91 1147)"
        r="253.57"
    />
    <radialGradient
        id="radialGradient14193"
        xlink:href="#linearGradient14023"
        gradientUnits="userSpaceOnUse"
        cy="567.07"
        cx="1260.5"
        gradientTransform="matrix(-.49897 -.88872 .083625 -.046951 -390.25 1282.3)"
        r="253.57"
    />
  </defs
  >
  <g
      id="layer1"
      transform="translate(205.8 226.02)"
    >
    <g
        id="g13955"
        transform="translate(-240 -128.57)"
      >
      <g
          id="g14121"
          stroke="#000"
          stroke-width="1px"
          transform="translate(1348.6 -37.143)"
        >
        <path
            id="path13087"
            d="m-803.95 449.49c-6.5828-27.803-182.52-312.06-139.71-466.06 42.812-154.01 139.71 466.06 139.71 466.06z"
            fill="url(#radialGradient14147)"
        />
        <path
            id="path14029"
            d="m-803.81 449.38c0.83741-28.559-95.536-348.66-14.323-486.34s14.323 486.34 14.323 486.34z"
            fill="url(#radialGradient14149)"
        />
        <path
            id="path14033"
            d="m-803.64 449.3c8.21-27.36-2.04-361.51 112.04-473.47 114.08-111.97-112.04 473.47-112.04 473.47z"
            fill="url(#radialGradient14151)"
        />
        <path
            id="path14037"
            d="m-803.45 449.28c15-24.31 91.59-349.72 230.77-428.35 139.17-78.623-230.77 428.35-230.77 428.35z"
            fill="url(#radialGradient14153)"
        />
        <path
            id="path14041"
            d="m-803.27 449.3c20.79-19.6 178.99-314.09 333.77-354.02 154.78-39.927-333.77 354.02-333.77 354.02z"
            fill="url(#radialGradient14155)"
        />
        <path
            id="path14045"
            d="m-803.1 449.38c25.152-13.554 254.18-257.07 414.02-255.58 159.84 1.4931-414.02 255.58-414.02 255.58z"
            fill="url(#radialGradient14157)"
        />
        <path
            id="path14049"
            d="m-802.95 449.49c27.803-6.5828 312.06-182.52 466.06-139.71 154.01 42.812-466.06 139.71-466.06 139.71z"
            fill="url(#radialGradient14159)"
        />
        <path
            id="path14053"
            d="m-802.84 449.63c28.559 0.83741 348.66-95.536 486.34-14.323s-486.34 14.323-486.34 14.323z"
            fill="url(#radialGradient14161)"
        />
        <path
            id="path14057"
            d="m-802.77 449.8c27.369 8.2005 361.51-2.04 473.48 112.04s-473.48-112.04-473.48-112.04z"
            fill="url(#radialGradient14163)"
        />
        <path
            id="path14061"
            d="m-802.75 449.99c24.314 15.005 349.72 91.595 428.35 230.77 78.627 139.17-428.35-230.77-428.35-230.77z"
            fill="url(#radialGradient14165)"
        />
        <path
            id="path14065"
            d="m-802.77 450.17c19.602 20.787 314.1 178.99 354.02 333.77 39.927 154.78-354.02-333.77-354.02-333.77z"
            fill="url(#radialGradient14167)"
        />
        <path
            id="path14069"
            d="m-802.95 450.49c6.5828 27.803 182.52 312.06 139.71 466.06-42.812 154.01-139.71-466.06-139.71-466.06z"
            fill="url(#radialGradient14169)"
        />
        <path
            id="path14073"
            d="m-803.1 450.6c-0.83741 28.559 95.536 348.66 14.323 486.34s-14.323-486.34-14.323-486.34z"
            fill="url(#radialGradient14171)"
        />
        <path
            id="path14077"
            d="m-802.84 450.34c13.554 25.152 257.07 254.18 255.58 414.02-1.4931 159.84-255.58-414.02-255.58-414.02z"
            fill="url(#radialGradient14173)"
        />
        <path
            id="path14081"
            d="m-803.27 450.67c-8.2005 27.369 2.04 361.51-112.04 473.48s112.04-473.48 112.04-473.48z"
            fill="url(#radialGradient14175)"
        />
        <path
            id="path14085"
            d="m-803.45 450.69c-15.005 24.314-91.595 349.72-230.77 428.35-139.17 78.627 230.77-428.35 230.77-428.35z"
            fill="url(#radialGradient14177)"
        />
        <path
            id="path14089"
            d="m-803.64 450.67c-20.787 19.602-178.99 314.1-333.77 354.02-154.78 39.927 333.77-354.02 333.77-354.02z"
            fill="url(#radialGradient14179)"
        />
        <path
            id="path14093"
            d="m-803.81 450.6c-25.152 13.554-254.18 257.07-414.02 255.58-159.84-1.4931 414.02-255.58 414.02-255.58z"
            fill="url(#radialGradient14181)"
        />
        <path
            id="path14097"
            d="m-803.95 450.49c-27.803 6.5828-312.06 182.52-466.06 139.71-154.01-42.812 466.06-139.71 466.06-139.71z"
            fill="url(#radialGradient14183)"
        />
        <path
            id="path14101"
            d="m-804.06 450.34c-28.559-0.83741-348.66 95.536-486.34 14.323s486.34-14.323 486.34-14.323z"
            fill="url(#radialGradient14185)"
        />
        <path
            id="path14105"
            d="m-804.14 450.17c-27.369-8.2005-361.51 2.0399-473.48-112.04s473.48 112.04 473.48 112.04z"
            fill="url(#radialGradient14187)"
        />
        <path
            id="path14109"
            d="m-804.16 449.99c-24.314-15.005-349.72-91.595-428.35-230.77-78.627-139.17 428.35 230.77 428.35 230.77z"
            fill="url(#radialGradient14189)"
        />
        <path
            id="path14113"
            d="m-804.14 449.8c-19.602-20.787-314.1-178.99-354.02-333.77-39.928-154.78 354.02 333.77 354.02 333.77z"
            fill="url(#radialGradient14191)"
        />
        <path
            id="path14117"
            d="m-804.06 449.63c-13.554-25.152-257.07-254.18-255.58-414.02 1.493-159.84 255.58 414.02 255.58 414.02z"
            fill="url(#radialGradient14193)"
        />
      </g
      >
    </g
    >
    <path
        id="path13003"
        d="m296.21 282.36c28.571 0 345.71-105.71 485.71-28.571 140 77.143-485.71 28.571-485.71 28.571z"
        stroke="#000"
        stroke-width="1px"
        fill="url(#radialGradient13367)"
    />
    <path
        id="path13017"
        d="m297.48 283.29c28.063 5.3676 359.42-38.884 482.43 63.187s-482.43-63.187-482.43-63.187z"
        stroke="#000"
        stroke-width="1px"
        fill="url(#radialGradient13361)"
    />
    <path
        id="path13021"
        d="m297.27 283.32c26.89 9.66 361.09 17.41 466.76 137.34 105.67 119.94-466.76-137.34-466.76-137.34z"
        stroke="#000"
        stroke-width="1px"
        fill="url(#radialGradient13358)"
    />
    <path
        id="path13029"
        d="m296.72 283.24c21.016 19.356 325.91 156.45 376.63 308.04 50.716 151.59-376.63-308.04-376.63-308.04z"
        stroke="#000"
        stroke-width="1px"
        fill="url(#radialGradient13352)"
    />
    <path
        id="path13033"
        d="m296.46 283.12c16.45 23.35 285.53 221.74 303.09 380.62s-303.09-380.62-303.09-380.62z"
        stroke="#000"
        stroke-width="1px"
        fill="url(#radialGradient13349)"
    />
    <path
        id="path13053"
        d="m300.01 278.5c21.279 19.067 186.93 309.44 342.67 345.41 155.75 35.98-342.67-345.41-342.67-345.41z"
        stroke="#000"
        stroke-width="1px"
        fill="url(#radialGradient13337)"
    />
    <path
        id="path13061"
        d="m298.92 277.71c27.38-8.17 361.51 2.41 473.59-111.56 112.08-113.96-473.59 111.56-473.59 111.56z"
        stroke="#000"
        stroke-width="1px"
        fill="url(#radialGradient13328)"
    />
    <path
        id="path13065"
        d="m298.92 277.71c27.38-8.17 361.51 2.41 473.59-111.56 112.08-113.96-473.59 111.56-473.59 111.56z"
        stroke="#000"
        stroke-width="1px"
        fill="url(#radialGradient13328)"
    />
    <path
        id="path13215"
        d="m295.96 282.59c2.3284 28.476 133.54 335.95 68.059 481.77-65.477 145.82-68.059-481.77-68.059-481.77z"
        stroke="#000"
        stroke-width="1px"
        fill="url(#radialGradient13325)"
    />
    <path
        id="path13219"
        d="m295.83 281.69c-15.77 23.83-102.66 346.64-244.26 420.81-141.6 74.16 244.26-420.81 244.26-420.81z"
        stroke="#000"
        stroke-width="1px"
        fill="url(#radialGradient13322)"
    />
    <path
        id="path13085"
        d="m301.49 282.24c-7.48-27.58-192.55-305.97-154.76-461.29 37.8-155.31 154.76 461.29 154.76 461.29z"
        stroke="#000"
        stroke-width="1px"
        fill="url(#radialGradient13314)"
    />
    <path
        id="path13089"
        d="m302.06 280.77c-2.1676-28.489-131.64-336.7-65.338-482.15 66.299-145.45 65.338 482.15 65.338 482.15z"
        stroke="#000"
        stroke-width="1px"
        fill="url(#radialGradient13308)"
    />
    <path
        id="path13091"
        d="m302.14 280.97c2.283-28.48-77.752-353.06 10.331-486.44 88.083-133.39-10.331 486.44-10.331 486.44z"
        stroke="#000"
        stroke-width="1px"
        fill="url(#radialGradient13305)"
    />
    <path
        id="path13095"
        d="m302.21 281.51c13.18-25.35 65.65-355.5 198.67-444.14s-198.67 444.14-198.67 444.14z"
        stroke="#000"
        stroke-width="1px"
        fill="url(#radialGradient13299)"
    />
    <path
        id="path13097"
        d="m302.16 281.8c18.23-22 139.24-333.63 287.98-392.18 148.73-58.55-287.98 392.18-287.98 392.18z"
        stroke="#000"
        stroke-width="1px"
        fill="url(#radialGradient13296)"
    />
    <path
        id="path13101"
        d="m301.89 282.29c25.43-13.04 259.41-251.81 419.18-247.04 159.78 4.775-419.18 247.04-419.18 247.04z"
        stroke="#000"
        stroke-width="1px"
        fill="url(#radialGradient13290)"
    />
    <path
        id="path13107"
        d="m296.36 280.17c-1.8218-28.513 83.455-351.75-2.4572-486.55-85.913-134.8 2.4572 486.55 2.4572 486.55z"
        stroke="#000"
        stroke-width="1px"
        fill="url(#radialGradient13281)"
    />
    <path
        id="path13109"
        d="m296.3 280.84c-15.06-24.28-92.34-349.53-231.68-427.86s231.68 427.86 231.68 427.86z"
        stroke="#000"
        stroke-width="1px"
        fill="url(#radialGradient13275)"
    />
    <path
        id="path13111"
        d="m296.3 280.84c-15.06-24.28-92.34-349.53-231.68-427.86s231.68 427.86 231.68 427.86z"
        stroke="#000"
        stroke-width="1px"
        fill="url(#radialGradient13275)"
    />
    <path
        id="path13143"
        d="m299.66 277.07c-23.03 16.9-216.22 289.73-374.73 310.33-158.51 20.61 374.73-310.33 374.73-310.33z"
        stroke="#000"
        stroke-width="1px"
        fill="url(#radialGradient13272)"
    />
    <path
        id="path13147"
        d="m298.09 277.07c-25.8 12.27-266.8 243.94-426.37 234.41-159.56-9.54 426.37-234.41 426.37-234.41z"
        stroke="#000"
        stroke-width="1px"
        fill="url(#radialGradient13266)"
    />
    <path
        id="path13151"
        d="m298.48 276.76c-28.478 2.3119-336.03 133.34-481.81 67.78-145.78-65.561 481.81-67.78 481.81-67.78z"
        stroke="#000"
        stroke-width="1px"
        fill="url(#radialGradient13260)"
    />
    <path
        id="path13155"
        d="m299.01 276.6c-27.08-9.1-361.38-9.9-469.52-127.62-108.13-117.71 469.52 127.62 469.52 127.62z"
        stroke="#000"
        stroke-width="1px"
        fill="url(#radialGradient13254)"
    />
    <path
        id="path13159"
        d="m299.56 276.67c-21.3-19.03-328.26-151.45-381.28-302.24-53.03-150.8 381.28 302.24 381.28 302.24z"
        stroke="#000"
        stroke-width="1px"
        fill="url(#radialGradient13248)"
    />
    <path
        id="path13207"
        d="m300.47 282.58c-6.4575 27.832-181.11 312.88-137.61 466.69 43.505 153.81 137.61-466.69 137.61-466.69z"
        stroke="#000"
        stroke-width="1px"
        fill="url(#radialGradient13227)"
    />
    <path
        id="path13316"
        d="m301.92 278.79c-88.571-11.429 108.57-97.143 108.57-97.143s-240 91.429-108.57 97.143z"
        fill="#fff700"
    />
    <path
        id="path13371"
        d="m301.52 280.35c-72.021-52.806 142-32.584 142-32.584s-254.3-35.929-142 32.584z"
        fill="#fff700"
    />
    <path
        id="path13373"
        d="m300.89 281.16c-52.063-72.56 145.09 13.121 145.09 13.121s-230.57-113.12-145.09-13.121z"
        fill="#fff700"
    />
    <path
        id="path13375"
        d="m299.63 281.89c-15.048-88.029 124.71 75.31 124.71 75.31s-157.79-202.64-124.71-75.31z"
        fill="#fff700"
    />
    <path
        id="path13377"
        d="m297.14 281.64c52.126-72.515 33.917 141.68 33.917 141.68s33.537-254.63-33.917-141.68z"
        fill="#fff700"
    />
    <path
        id="path13379"
        d="m295.93 280.51c81.155-37.275-40.542 139.93-40.542 139.93s155-204.78 40.542-139.93z"
        fill="#fff700"
    />
    <path
        id="path13381"
        d="m295.86 277.18c71.294 53.783-142.43 30.644-142.43 30.644s253.79 39.394 142.43-30.644z"
        fill="#fff700"
    />
    <path
        id="path13383"
        d="m295.86 277.18c71.294 53.783-142.43 30.644-142.43 30.644s253.79 39.394 142.43-30.644z"
        fill="#fff700"
    />
    <path
        id="path13385"
        d="m298.76 275.55c-13.468 88.284-94.614-110.78-94.614-110.78s85.87 242.04 94.614 110.78z"
        fill="#fff700"
    />
    <path
        id="path13387"
        d="m301.38 276.99c-80.069 39.552 36.573-141.02 36.573-141.02s-149.16 209.07-36.573 141.02z"
        fill="#fff700"
    />
    <path
        id="path13389"
        d="m297.5 278.79c88.57-11.43-108.57-97.15-108.57-97.15s240 91.429 108.57 97.143z"
        fill="#fff700"
    />
    <path
        id="path13391"
        d="m298.53 281.16c52.063-72.56-145.09 13.121-145.09 13.121s230.57-113.12 145.09-13.121z"
        fill="#fff700"
    />
    <path
        id="path13393"
        d="m299.79 281.89c15.048-88.029-124.71 75.31-124.71 75.31s157.79-202.64 124.71-75.31z"
        fill="#fff700"
    />
    <path
        id="path13395"
        d="m303.49 280.51c-81.155-37.275 40.542 139.93 40.542 139.93s-155-204.78-40.542-139.93z"
        fill="#fff700"
    />
    <path
        id="path13397"
        d="m303.56 277.18c-71.294 53.783 142.43 30.644 142.43 30.644s-253.79 39.394-142.43-30.644z"
        fill="#fff700"
    />
    <path
        id="path13399"
        d="m300.67 275.55c13.468 88.284 94.614-110.78 94.614-110.78s-85.87 242.04-94.614 110.78z"
        fill="#fff700"
    />
    <path
        id="path13401"
        d="m298.04 276.99c80.069 39.552-36.573-141.02-36.573-141.02s149.16 209.07 36.573 141.02z"
        fill="#fff700"
    />
    <g
        id="g13419"
        transform="translate(-132.86 105.71)"
      >
      <g
          id="g13467"
          transform="translate(760 -82.857)"
        >
        <path
            id="path13411"
            d="m-333.7 258.43c-34.378-91.54-6.1429-116.4 2.5363-97.505-3.1706-7.247 35.587-16.646-2.5363 97.505z"
            fill="url(#radialGradient13477)"
        />
        <path
            id="path13439"
            d="m-333.7 258.43c35.949-90.934 73.565-90.415 67.319-70.583 2.5131-7.5004 37.554 11.543-67.319 70.583z"
            fill="url(#radialGradient13479)"
        />
        <path
            id="path13443"
            d="m-333.7 258.43c89.691-38.947 115.94-12 97.509-2.38 7.078-3.5318 18.418 34.703-97.509 2.38z"
            fill="url(#radialGradient13481)"
        />
        <path
            id="path13447"
            d="m-333.7 258.43c91.557 34.333 91.703 71.952 71.764 66.058 7.5438 2.3798-10.876 37.753-71.764-66.058z"
            fill="url(#radialGradient13483)"
        />
        <path
            id="path13451"
            d="m-333.7 258.43c43.809 87.419 18.344 115.11 7.7267 97.232 3.9148 6.8736-33.64 20.295-7.7267-97.232z"
            fill="url(#radialGradient13485)"
        />
        <path
            id="path13455"
            d="m-333.7 258.43c-21.828 95.315-59.092 100.47-55.907 79.926-1.3535 7.7936-38.865-5.7485 55.907-79.926z"
            fill="url(#radialGradient13487)"
        />
        <path
            id="path13459"
            d="m-333.7 258.43c-82.897 51.859-112.87 29.119-96.07 16.863-6.4737 4.5457-23.377-31.576 96.07-16.863z"
            fill="url(#radialGradient13489)"
        />
        <path
            id="path13463"
            d="m-333.7 258.43c-91.789-33.708-92.192-71.325-72.213-65.567-7.5598-2.3284 10.618-37.826 72.213 65.567z"
            fill="url(#radialGradient13491)"
        />
      </g
      >
      <g
          id="g13493"
          transform="matrix(.89384 .44838 -.44838 .89384 840.35 93.631)"
        >
        <path
            id="path13495"
            d="m-333.7 258.43c-34.378-91.54-6.1429-116.4 2.5363-97.505-3.1706-7.247 35.587-16.646-2.5363 97.505z"
            fill="url(#radialGradient13477)"
        />
        <path
            id="path13497"
            d="m-333.7 258.43c35.949-90.934 73.565-90.415 67.319-70.583 2.5131-7.5004 37.554 11.543-67.319 70.583z"
            fill="url(#radialGradient13479)"
        />
        <path
            id="path13499"
            d="m-333.7 258.43c89.691-38.947 115.94-12 97.509-2.38 7.078-3.5318 18.418 34.703-97.509 2.38z"
            fill="url(#radialGradient13481)"
        />
        <path
            id="path13501"
            d="m-333.7 258.43c91.557 34.333 91.703 71.952 71.764 66.058 7.5438 2.3798-10.876 37.753-71.764-66.058z"
            fill="url(#radialGradient13483)"
        />
        <path
            id="path13503"
            d="m-333.7 258.43c43.809 87.419 18.344 115.11 7.7267 97.232 3.9148 6.8736-33.64 20.295-7.7267-97.232z"
            fill="url(#radialGradient13485)"
        />
        <path
            id="path13505"
            d="m-333.7 258.43c-21.828 95.315-59.092 100.47-55.907 79.926-1.3535 7.7936-38.865-5.7485 55.907-79.926z"
            fill="url(#radialGradient13487)"
        />
        <path
            id="path13507"
            d="m-333.7 258.43c-82.897 51.859-112.87 29.119-96.07 16.863-6.4737 4.5457-23.377-31.576 96.07-16.863z"
            fill="url(#radialGradient13489)"
        />
        <path
            id="path13509"
            d="m-333.7 258.43c-91.789-33.708-92.192-71.325-72.213-65.567-7.5598-2.3284 10.618-37.826 72.213 65.567z"
            fill="url(#radialGradient13491)"
        />
      </g
      >
    </g
    >
  </g
  >
  <metadata
    >
    <rdf:RDF
      >
      <cc:Work
        >
        <dc:format
          >image/svg+xml</dc:format
        >
        <dc:type
            rdf:resource="http://purl.org/dc/dcmitype/StillImage"
        />
        <cc:license
            rdf:resource="http://creativecommons.org/licenses/publicdomain/"
        />
        <dc:publisher
          >
          <cc:Agent
              rdf:about="http://openclipart.org/"
            >
            <dc:title
              >Openclipart</dc:title
            >
          </cc:Agent
          >
        </dc:publisher
        >
        <dc:title
          >Pink and Blue Flower</dc:title
        >
        <dc:date
          >2013-10-05T22:58:44</dc:date
        >
        <dc:description
          >A pink and blue flower with some yellow pollen.</dc:description
        >
        <dc:source
          >https://openclipart.org/detail/184592/pink-and-blue-flower-by-jesseakc-184592</dc:source
        >
        <dc:creator
          >
          <cc:Agent
            >
            <dc:title
              >jesseakc</dc:title
            >
          </cc:Agent
          >
        </dc:creator
        >
        <dc:subject
          >
          <rdf:Bag
            >
            <rdf:li
              >Flower</rdf:li
            >
            <rdf:li
              >Pink</rdf:li
            >
            <rdf:li
              >Plue</rdf:li
            >
          </rdf:Bag
          >
        </dc:subject
        >
      </cc:Work
      >
      <cc:License
          rdf:about="http://creativecommons.org/licenses/publicdomain/"
        >
        <cc:permits
            rdf:resource="http://creativecommons.org/ns#Reproduction"
        />
        <cc:permits
            rdf:resource="http://creativecommons.org/ns#Distribution"
        />
        <cc:permits
            rdf:resource="http://creativecommons.org/ns#DerivativeWorks"
        />
      </cc:License
      >
    </rdf:RDF
    >
  </metadata
  >
</svg
>
